Importar, explorar y exportar datos | Análisis Estadístico en R
…
¿Y R tiene formato de datos? ¡Sí! Como son propios del programa no es necesario cargar paquetes, pues las funciones para importarlos provienen del paquete base. La diferencia básica entre .RData y .rds es que .rds puede contener solo un objeto del Enviroment de R, mientras que .RData puede contener múltiples objetos que han sido guardados en el entorno (¡no sólo datos! también se guardarán gráficos, modelos, entre otros).

Leer un objeto proveniente de un archivo

readRDS(file = “datos.rds”)

Leer múltiples objetos a un archivo
load(file = “datos.RData”)

Además de nunca olvidar la ruta, no debes olvidar una diferencia de codificación entre ambas funciones: con load() los objetos se cargan automáticamente en el ambiente, por lo cual no debemos utilizar operadores de asignación (<- o =) para crear un nuevo objeto, mientras que en readRDS() sí debemos asignar un nuevo objeto en el ambiente.

load(file = "input/data/CASEN.RData")
readRDS(file = "input/data/CASEN.rds")

## # A tibble: 100 x 5
##       id                     region      sexo      pobreza ocupacion            
##    <dbl>                  <dbl+lbl> <dbl+lbl>    <dbl+lbl> <chr>                
##  1   502 16 [Región de Ñuble]       2 [Mujer] 3 [No pobre~ <NA>                 
##  2   184  6 [Región del Libertador~ 2 [Mujer] 3 [No pobre~ <NA>                 
##  3   308  8 [Región del Biobío]     2 [Mujer] 3 [No pobre~ <NA>                 
##  4   531  6 [Región del Libertador~ 1 [Hombr~ 3 [No pobre~ COSECHA DE GUINDAS   
##  5   115  3 [Región de Atacama]     2 [Mujer] 3 [No pobre~ <NA>                 
##  6   261  5 [Región de Valparaíso]  2 [Mujer] 3 [No pobre~ <NA>                 
##  7   171  3 [Región de Atacama]     1 [Hombr~ 3 [No pobre~ ATENCIÓN PARADERO CO~
##  8   333  7 [Región del Maule]      1 [Hombr~ 1 [Pobres e~ RECOLECTOR DE HORTAL~
##  9    69 14 [Región de Los Ríos]    1 [Hombr~ 3 [No pobre~ EMPRESARIO DISTRIBUC~
## 10   440  4 [Región de Coquimbo]    1 [Hombr~ 2 [Pobres n~ <NA>                 
## # ... with 90 more rows
…
